ISSS624 - In-class Exercise 3
…
Before we can join flow_data and distPair, we need to convert data value type of ORIGIN_SZ and DESTIN_SZ fields of flow_data dataframe into factor data type.

flow_data$ORIGIN_SZ <- as.factor(flow_data$ORIGIN_SZ)
flow_data$DESTIN_SZ <- as.factor(flow_data$DESTIN_SZ)

Now, left_join() of dplyr will be used to flow_data dataframe and distPair dataframe. The output is called flow_data1.

flow_data1 <- flow_data %>%
  left_join (distPair,
             by = c("ORIGIN_SZ" = "orig",
                    "DESTIN_SZ" = "dest"))

flow_data1

# A tibble: 21,079 × 6
# Groups:   ORIGIN_SZ [310]
   ORIGIN_SZ DESTIN_SZ TRIPS FlowNoIntra   offset  dist
   <fct>     <fct>     <dbl>       <dbl>    <dbl> <dbl>
 1 AMSZ01    AMSZ01     2694           0 0.000001   50 
 2 AMSZ01    AMSZ02    10591       10591 1         810.
 3 AMSZ01    AMSZ03    14980       14980 1        1361.
 4 AMSZ01    AMSZ04     3106        3106 1         840.
 5 AMSZ01    AMSZ05     7734        7734 1        1077.
 6 AMSZ01    AMSZ06     2306        2306 1         805.
 7 AMSZ01    AMSZ07     1824        1824 1        1799.
 8 AMSZ01    AMSZ08     2734        2734 1        2576.
 9 AMSZ01    AMSZ09     2300        2300 1        1204.
10 AMSZ01    AMSZ10      164         164 1        1418.
# ℹ 21,069 more rows
…
