ISSS624 - 1A: Geospatial Data Wrangling with R
…
Typically, one might encounter aspatial data that includes two separate fields representing the x- and y-coordinates of the data points. Such aspatial data can be transformed from a tibble data frame into a simple feature data frame, enabling more comprehensive geospatial analysis.

7.1. Importing Aspatial Data as Tibble Data Frame

The following code chunk uses `read_csv()` function of readr package to import the `listings.csv` data from Airbnb. The output R object is a tibble data frame called `listings`.

listings <- read_csv("data/aspatial/listings.csv")

The following code chunk uses `list()` of Base R instead of `glimpse()` to examine if the data file has been imported correctly.

list(listings) 

[[1]]
# A tibble: 3,483 × 75
       id listing_url            scrape_id last_scraped source name  description
    <dbl> <chr>                      <dbl> <date>       <chr>  <chr> <chr>      
 1  71609 https://www.airbnb.co…   2.02e13 2023-09-23   previ… Vill… For 3 room…
 2  71896 https://www.airbnb.co…   2.02e13 2023-09-23   previ… Home… <b>The spa…
 3  71903 https://www.airbnb.co…   2.02e13 2023-09-23   previ… Home… Like your …
 4 275343 https://www.airbnb.co…   2.02e13 2023-09-23   city … Rent… **IMPORTAN…
 5 275344 https://www.airbnb.co…   2.02e13 2023-09-23   city … Rent… Lovely hom…
 6 289234 https://www.airbnb.co…   2.02e13 2023-09-23   previ… Home… This whole…
 7 294281 https://www.airbnb.co…   2.02e13 2023-09-23   city … Rent… I have 3 b…
 8 324945 https://www.airbnb.co…   2.02e13 2023-09-23   city … Rent… **IMPORTAN…
 9 330095 https://www.airbnb.co…   2.02e13 2023-09-23   city … Rent… **IMPORTAN…
10 369141 https://www.airbnb.co…   2.02e13 2023-09-23   city … Plac… A room in …
# ℹ 3,473 more rows
# ℹ 68 more variables: neighborhood_overview <chr>, picture_url <chr>,
#   host_id <dbl>, host_url <chr>, host_name <chr>, host_since <date>,
#   host_location <chr>, host_about <chr>, host_response_time <chr>,
#   host_response_rate <chr>, host_acceptance_rate <chr>,
#   host_is_superhost <lgl>, host_thumbnail_url <chr>, host_picture_url <chr>,
#   host_neighbourhood <chr>, host_listings_count <dbl>, …
…
